…
**Question 2**

The variable 'listings' correspond to the total active listings


Now I'm extracting the variables sales and volume:

```r
txhousing |> 
  select(sales,volume)
```

```
## # A tibble: 8,602 × 2
##    sales   volume
##    <dbl>    <dbl>
##  1    72  5380000
##  2    98  6505000
##  3   130  9285000
##  4    98  9730000
##  5   141 10590000
##  6   156 13910000
##  7   152 12635000
##  8   131 10710000
##  9   104  7615000
## 10   101  7040000
## # … with 8,592 more rows
```
…
```r
austin_12 <- txhousing |> 
  filter(year == 2012, city == "Austin")
```


Now all houses in Austin before the year 2004:

```r
txhousing |> 
  filter(year < 2004, city == "Austin")
```

```
## # A tibble: 48 × 8
##    city    year month sales    volume median listings inventory
##    <chr>  <int> <int> <dbl>     <dbl>  <dbl>    <dbl>     <dbl>
##  1 Austin  2000     1  1025 173053635 133700     3084       2  
##  2 Austin  2000     2  1277 226038438 134000     2989       2  
##  3 Austin  2000     3  1603 298557656 136700     3042       2  
##  4 Austin  2000     4  1556 289197960 136900     3192       2.1
##  5 Austin  2000     5  1980 393073774 144700     3617       2.3
##  6 Austin  2000     6  1885 368290072 148800     3799       2.4
##  7 Austin  2000     7  1818 351539312 149300     3944       2.6
##  8 Austin  2000     8  1880 360255090 146300     3948       2.6
##  9 Austin  2000     9  1498 292799874 148700     4058       2.6
## 10 Austin  2000    10  1524 300952544 150100     4100       2.6
## # … with 38 more rows
```
…
I can also group_by multiple variables. This will show the average sales for each city for each month:

```r
aust_ab |> group_by(city, month) |> 
  summarize(x_bar_sales = mean(sales))
```

```
## `summarise()` has grouped output by 'city'. You can override using the `.groups` argument.
```

```
## # A tibble: 24 × 3
## # Groups:   city [2]
##    city    month x_bar_sales
##    <chr>   <int>       <dbl>
##  1 Abilene     1        96.3
##  2 Abilene     2       121  
##  3 Abilene     3       151. 
##  4 Abilene     4       160. 
##  5 Abilene     5       178. 
##  6 Abilene     6       190. 
##  7 Abilene     7       184. 
##  8 Abilene     8       181. 
##  9 Abilene     9       144. 
## 10 Abilene    10       144. 
## # … with 14 more rows
```
…
**Question 4**

Now I'll make a subset of the data for Dallas in 2012 and 2013:

```r
dallas_sub <- txhousing |> filter(city == "Dallas", year == 2012 | year == 2013)
dallas_sub
```

```
## # A tibble: 24 × 8
##    city    year month sales     volume median listings vol_100k
##    <chr>  <int> <int> <dbl>      <dbl>  <dbl>    <dbl>    <dbl>
##  1 Dallas  2012     1  2555  509458081 150800    16721    5095.
##  2 Dallas  2012     2  3085  634067291 157100    17173    6341.
##  3 Dallas  2012     3  4068  898320563 167300    17433    8983.
##  4 Dallas  2012     4  4291  983333297 168700    17632    9833.
##  5 Dallas  2012     5  5004 1175419749 175100    17726   11754.
##  6 Dallas  2012     6  5196 1209024869 177900    17587   12090.
##  7 Dallas  2012     7  4859 1117428758 176000    17314   11174.
##  8 Dallas  2012     8  5264 1168296112 174200    16611   11683.
##  9 Dallas  2012     9  4151  921678400 173500    15994    9217.
## 10 Dallas  2012    10  4214  885330428 166700    15008    8853.
## # … with 14 more rows
```


**Question 5**

Now adding a new column to dallas_sub that calculated the percentage of listing sold:

```r
dallas_sub <- dallas_sub |>
  mutate(prct_sold = (sales/listings * 100))
dallas_sub
```

```
## # A tibble: 24 × 9
##    city    year month sales     volume median listings vol_100k prct_sold
##    <chr>  <int> <int> <dbl>      <dbl>  <dbl>    <dbl>    <dbl>     <dbl>
##  1 Dallas  2012     1  2555  509458081 150800    16721    5095.      15.3
##  2 Dallas  2012     2  3085  634067291 157100    17173    6341.      18.0
##  3 Dallas  2012     3  4068  898320563 167300    17433    8983.      23.3
##  4 Dallas  2012     4  4291  983333297 168700    17632    9833.      24.3
##  5 Dallas  2012     5  5004 1175419749 175100    17726   11754.      28.2
##  6 Dallas  2012     6  5196 1209024869 177900    17587   12090.      29.5
##  7 Dallas  2012     7  4859 1117428758 176000    17314   11174.      28.1
##  8 Dallas  2012     8  5264 1168296112 174200    16611   11683.      31.7
##  9 Dallas  2012     9  4151  921678400 173500    15994    9217.      26.0
## 10 Dallas  2012    10  4214  885330428 166700    15008    8853.      28.1
## # … with 14 more rows
```
…
The above code did all of the operations I just ran separately above. Specifically, it took the original data frame and (1) filtered it to only include listings in Dallas in 2012 or 2013, (2) added a new column that was percentage of listing sold, (3) grouped the data by month, (4) created a summary value of the average percent sold and, (5) arranged the resulting data in descending order of percent sold.


**Question 9**

In Jan 2015, the city with the fewest houses listed for sale was: San Marcos

```r
txhousing |>
  filter(year == 2015, month == 1) |>
  arrange(listings)
```

```
## # A tibble: 46 × 8
##    city             year month sales   volume median listings vol_100k
##    <chr>           <int> <int> <dbl>    <dbl>  <dbl>    <dbl>    <dbl>
##  1 San Marcos       2015     1    18  3376703 150000       85     33.8
##  2 Garland          2015     1   114 17591250 135800      198    176. 
##  3 Irving           2015     1    82 20208733 157800      278    202. 
##  4 Victoria         2015     1    54 10362907 172500      280    104. 
##  5 Nacogdoches      2015     1    20  3222150 140000      284     32.2
##  6 Paris            2015     1    25  3611892 123300      299     36.1
##  7 Brazoria County  2015     1    69 10382931 146000      301    104. 
##  8 Odessa           2015     1    63 10040640 156200      308    100. 
##  9 Texarkana        2015     1    75  9330521 101400      317     93.3
## 10 Lufkin           2015     1    37  6865950 134000      404     68.7
## # … with 36 more rows
```
…
**Question 11**

Now generate a single table showing number of houses sold in Austin in 2000 and 2001 and the total of houses sold in Dallas in 2000 and 2001.

To do this, first I will select the relevant variables and filter for the cities and years I need to analyze: 

```r
aus_dall_0001 <- txhousing |>
  select(city, year,sales) |> 
  filter(city == "Austin" | city == "Dallas", year == 2000 | year == 2001)
aus_dall_0001
```

```
## # A tibble: 48 × 3
##    city    year sales
##    <chr>  <int> <dbl>
##  1 Austin  2000  1025
##  2 Austin  2000  1277
##  3 Austin  2000  1603
##  4 Austin  2000  1556
##  5 Austin  2000  1980
##  6 Austin  2000  1885
##  7 Austin  2000  1818
##  8 Austin  2000  1880
##  9 Austin  2000  1498
## 10 Austin  2000  1524
## # … with 38 more rows
```
…
